%YAML 1.1
%TAG !u! tag:unity3d.com,2011:
--- !u!114 &11400000
MonoBehaviour:
  m_ObjectHideFlags: 0
  m_CorrespondingSourceObject: {fileID: 0}
  m_PrefabInstance: {fileID: 0}
  m_PrefabAsset: {fileID: 0}
  m_GameObject: {fileID: 0}
  m_Enabled: 1
  m_EditorHideFlags: 0
  m_Script: {fileID: 11500000, guid: e412a045fb83eb84bac5bc5cb29baddd, type: 3}
  m_Name: 306
  m_EditorClassIdentifier: 
  id: 306
  label: Scavenge
  description: Take a card from the top of discarded deck
  flavourText: '"Look! This one''s still alive!" - Eteocles, adventurer'
  count: 8
  rarity: 1
  type: 3
  prefab3D: {fileID: 3845140484555957453, guid: e957b1abc98c20e4e88939d004f83afa,
    type: 3}
  prefab2D: {fileID: 263072651993026655, guid: 672a9d136edf2f749b135bd61d300710, type: 3}
